<?xml version="1.0"?>

<robot xmlns:xacro="http://www.ros.org/wiki/xacro" name="right_front_caster">
<link name="right_front_caster">
    <inertial>
      <origin  xyz="-0.037748 -9.8058E-05 -0.069776" rpy="0 0 0" />       
      <mass value="0.78517" />       
      <inertia
        ixx="0.00096648"
        ixy="2.477E-08"
        ixz="-0.00010578"
        iyy="0.001426"
        iyz="2.585E-08"
        izz="0.0011097" />
    </inertial>
    <visual>
      <origin xyz="0 0 0" rpy="0 0 0" />              
      <geometry>
        <mesh filename="package://mir200_description/meshes/right_front_caster.STL" />         
      </geometry>
      <material name="">      
        <color rgba="0.6 0 0 1" />         
      </material>
    </visual>
    <collision>
      <origin xyz="0 0 0" rpy="0 0 0" />              
      <geometry>
        <mesh filename="package://mir200_description/meshes/right_front_caster.STL" />          
      </geometry>
    </collision>
  </link>

  <joint name="right_front_joint" type="continuous">     
    <origin xyz="0.31201 -0.20589 -0.037029" rpy="0 0 0" />          
    <parent link="base_link" />
    <child link="right_front_caster" />
    <axis xyz="0 0 1" />       
  </joint>
</robot>