<?xml version="1.0"?>

<robot xmlns:xacro="http://www.ros.org/wiki/xacro" name="front_lidar"> 
  <link name="front_lidar">   
    <inertial>
      <origin xyz="-0.010972 -0.010972 0.020858" rpy="0 0 0" />              
      <mass value="6.2805" />       
      <inertia
        ixx="0.010563"
        ixy="0.0001302"
        ixz="-0.00054885"
        iyy="0.010563"
        iyz="-0.00054885"
        izz="0.0079503" />
    </inertial>
    <visual>
      <origin xyz="0 0 0" rpy="0 0 0" />              
      <geometry>
        <mesh filename="package://mir200_description/meshes/front_lidar.STL" />         
      </geometry>
      <material name="">       
        <color rgba="0.5 0.5 0 1" />         
      </material>
    </visual>
    <collision>
      <origin xyz="0 0 0" rpy="0 0 0" />            
      <geometry>
        <mesh filename="package://mir200_description/meshes/front_lidar.STL" />        
      </geometry>
    </collision>
  </link>
  <joint name="front_lidar_joint" type="fixed">
    <origin xyz="0.40225 0.23657 -0.014" rpy="0 0 0" />
    <parent link="base_link" /> 
    <child link="front_lidar" /> 
    <axis xyz="0 0 0" />
  </joint>
</robot>