<?xml version="1.0"?>

<robot xmlns:xacro="http://www.ros.org/wiki/xacro" name="right_cam"> 
  <link name="right_cam"> 
    <inertial>
      <origin xyz="0.0016974 0.0021639 -0.0048669" rpy="0 0 0" />
      <mass value="0.0011998" /> 
      <inertia
        ixx="8.323E-07"
        ixy="-6.9913E-09"
        ixz="1.2435E-07"
        iyy="7.4555E-07"
        iyz="2.2035E-07"
        izz="1.6674E-07" />
    </inertial>
    <visual>
      <origin xyz="0 0 0" rpy="0 0 0" />
      <geometry>
        <mesh filename="package://mir200_description/meshes/right_cam.STL" />
      </geometry>
      <material name="">
       <color rgba="0.5 0.2 0.2 1" />  
      </material>
    </visual>
    <collision>
      <origin xyz="0 0 0" rpy="0 0 0" />     
      <geometry>
        <mesh filename="package://mir200_description/meshes/right_cam.STL" />        
      </geometry>
    </collision>
  </link>
  <joint name="right_cam_joint" type="fixed">
   <origin xyz="0.42089 -0.064074 -0.084608" rpy="0 0 0" /> 
    <parent link="base_link" />    
    <child link="right_cam" />     
    <axis xyz="0 0 0" />     
  </joint>
</robot>